Module 1: Tabular Data
…
# Read CO2 production data from F_satellite matrix
# Filter for CO2-related stressors in 2022
co2_data <- exio |>
    filter(
        year == 2022,
        matrix == "F_satellite",
        stressor %like% "%CO2%"
    ) |>
    collect()

# View the CO2 data
co2_data

# A tibble: 35,334 × 8
   stressor               region sector          value unit   year format matrix
   <chr>                  <chr>  <chr>           <dbl> <chr> <dbl> <chr>  <chr> 
 1 CO2 - combustion - air AT     Cultivation o… 2.40e8 kg     2022 ixi    F_sat…
 2 CO2 - combustion - air AT     Cultivation o… 2.27e8 kg     2022 ixi    F_sat…
 3 CO2 - combustion - air AT     Cultivation o… 9.84e7 kg     2022 ixi    F_sat…
 4 CO2 - combustion - air AT     Cultivation o… 4.81e7 kg     2022 ixi    F_sat…
 5 CO2 - combustion - air AT     Cultivation o… 1.29e7 kg     2022 ixi    F_sat…
 6 CO2 - combustion - air AT     Cultivation o… 1.12e4 kg     2022 ixi    F_sat…
 7 CO2 - combustion - air AT     Cultivation o… 1.97e6 kg     2022 ixi    F_sat…
 8 CO2 - combustion - air AT     Cattle farming 9.26e7 kg     2022 ixi    F_sat…
 9 CO2 - combustion - air AT     Pigs farming   5.57e7 kg     2022 ixi    F_sat…
10 CO2 - combustion - air AT     Poultry farmi… 5.07e7 kg     2022 ixi    F_sat…
# ℹ 35,324 more rows
…
